<Sentence id="1">
1	((	NP	<fs af='maMdala,n,m,pl,3,o,0_ko,0' head=maMdaloM posn=20 vpos="vib2_3_RP" name="NP" drel="k2:VGNN">
1.1	gaNeSa	NNP	<fs af='gaNeSa,n,m,sg,3,d,0,0' name=gaNeSa posn=10>
1.2	maMdaloM	NN	<fs af='maMdala,n,m,pl,3,o,0,0' name=maMdaloM posn=20>
1.3	BI	RP	<fs af='BI,avy,,,,,,' name=BI posn=40>
	))
2	((	NP	<fs af='korta,n,f,sg,3,o,0_kA,0' head=korta posn=60 vpos="vib2_3" name="NP2" drel="r6:NP3">
2.1	suprIma	NNPC	<fs af='suprIma,n,m,sg,3,d,0,0' name=suprIma posn=50>
2.2	korta	NNP	<fs af='korta,n,f,sg,3,o,0,0' name=korta posn=60>
	))
3	((	NP	<fs af='nirxeSa,n,m,pl,3,o,0_kA,0' head=nirxeSoM posn=100 vpos="vib3_4" name="NP3" drel="r6-k2:NP4">
3.1	xiSA	NNC	<fs af='xiSA,n,f,sg,3,d,0,0' name=xiSA posn=80>
3.2	-	SYM	<fs af='-,punc,,,,,,' name=- posn=90>
3.3	nirxeSoM	NN	<fs af='nirxeSa,n,m,pl,3,o,0,0' name=nirxeSoM posn=100>
	))
4	((	NP	<fs af='pAlana,n,m,sg,3,d,0,0' head=pAlana posn=120 name="NP4" drel="pof:VGNN">
4.1	pAlana	NN	<fs af='pAlana,n,m,sg,3,d,0,0' name=pAlana posn=120>
	))
5	((	VGNN	<fs af='kara,v,any,any,any,o,nA_ke_lie,nA' head=karane posn=130 vpos="tam1_2_3" name="VGNN" drel="rt:VGF">
5.1	karane	VM	<fs af='kara,v,any,any,any,o,nA,nA' name=karane posn=130>
	))
6	((	JJP	<fs af='rajAmaMxa,adj,any,any,,,,' head=rajAmaMxa posn=160 name="JJP" drel="pof:VGF">
6.1	rajAmaMxa	JJ	<fs af='rajAmaMxa,adj,any,any,,,,' name=rajAmaMxa posn=160>
	))
7	((	VGF	<fs af='kara,v,m,sg,3,,0_le+yA_jA+yA1_hE,0' head=kara stype=declarative posn=170 voicetype=passive vpos="tam1_2_3_4" name="VGF">
7.1	kara	VM	<fs af='kara,v,any,any,any,,0,0' name=kara posn=170>
	))
8	((	BLK	<fs af='.,punc,,,,,,' head=. posn=210 name="BLK" drel="rsym:VGF">
8.1	.	SYM	<fs af='.,punc,,,,,,' name=. posn=210>
	))
</Sentence>

