<Sentence id="1">			
1	((	CCP	<fs af='पर,avy,,,,,,' name="CCP"  posn='10'  head='पर'>
1.1	पर	CC	<fs af='पर,avy,,,,,,' name='para'  posn='10'>
	))
2	((	NP	<fs af='झारखंड,n,m,sg,3,o,0_में,0' vpos="vib1_2"  posn='20'  head='झारखंड'  name="NP"  drel="k7p:VGF" semprop='rest'>
2.1	झारखंड	NNP	<fs af='झारखंड,n,m,sg,3,o,0,0' posn='20'  name='JAraKaMda'>
	))
3	((	NP	<fs af='तरह,n,f,sg,3,d,0,0' head='तरह'  posn='50'  drel="nmod:NP3"  name="NP2" semprop='rest'>
3.1	जिस	DEM	<fs af='जो,pn,any,sg,3,o,,' name='jisa'  posn='40'>
3.2	तरह	NN	<fs af='तरह,n,f,sg,3,d,0,0' name='waraha'  posn='50'>
	))
4	((	NP	<fs af='कांग्रेस,n,f,sg,3,o,0_ने,0' posn='60'  head='कांग्रेस'  vpos="vib1_2"  name="NP3"  drel="k1:VGF" semprop='rest'>
4.1	कांग्रेस	NNP	<fs af='कांग्रेस,n,f,sg,3,o,0,0' name='kAMgresa'  posn='60'>
	))
5	((	NP	<fs af='झामुमो,n,m,sg,3,o,0_के_साथ,0' drel="ras-k1:VGF"  name="NP4"  head='झामुमो'  posn='80'  vpos="vib1_2_3" semprop='rest'>
5.1	झामुमो	NNP	<fs af='झामुमो,n,m,sg,3,o,0,0' posn='80'  name='JAmumo'>
	))
6	((	NP	<fs af='समझौता,n,m,sg,3,d,0,0' head='समझौता'  posn='110'  drel="pof:VGF"  name="NP5" semprop='rest'>
6.1	समझौता	NN	<fs af='समझौता,n,m,sg,3,d,0,0' name='samaJOwA'  posn='110'>
	))
7	((	VGF	<fs af='कर,v,m,sg,any,,या,yA' drel="nmod__relc:NP6"  name="VGF"  voicetype='active'  head='किया'  posn='120'  stype='declarative'>
7.1	किया	VM	<fs af='कर,v,m,sg,any,,या,yA' posn='120'  name='kiyA'>
	))
8	((	NP	<fs af='वह,pn,any,sg,3,o,से,se' vpos="vib1"  head='उससे'  posn='130'  drel="rh:VGF2"  name="NP6" semprop='h'>
8.1	उससे	PRP	<fs af='वह,pn,any,sg,3,o,से,se' posn='130'  name='usase'>
	))
9	((	NP	<fs af='राजद,n,m,sg,3,o,0_का,0' name="NP7"  drel="k1:VGNN"  posn='140'  head='राजद'  vpos="vib1_2" semprop='rest'>
9.1	राजद	NNP	<fs af='राजद,n,m,sg,3,o,0,0' posn='140'  name='rAjaxa'>
	))
10	((	JJP	<fs af='नाराज,adj,any,any,,,,' name="JJP"  drel="pof:VGNN"  posn='160'  head='नाराज'>
10.1	नाराज	JJ	<fs af='नाराज,adj,any,any,,,,' name='nArAja'  posn='160'>
	))
11	((	VGNN	<fs af='हो,v,any,any,any,o,ना,nA' drel="k1:VGF2"  name="VGNN"  head='होना'  posn='170'>
11.1	होना	VM	<fs af='हो,v,any,any,any,o,ना,nA' name='honA'  posn='170'>
	))
12	((	JJP	<fs af='लाजिमी,adj,any,any,,,,' name="JJP2"  drel="k1s:VGF2"  posn='180'  head='लाजिमी'>
12.1	लाजिमी	JJ	<fs af='लाजिमी,adj,any,any,,,,' name='lAjimI'  posn='180'>
	))
13	((	VGF	<fs af='था,v,m,sg,any,,था,WA' drel="ccof:CCP"  name="VGF2"  voicetype='active'  head='था'  posn='190'  stype='declarative'>
13.1	था	VM	<fs af='था,v,m,sg,any,,था,WA' name='WA'  posn='190'>
	))
14	((	BLK	<fs af='.,punc,,,,,,' posn='200'  head='.'  name="BLK"  drel="rsym:CCP">
14.1	.	SYM	<fs af='.,punc,,,,,,' posn='200'  name='.'>
	))
</Sentence>			
			
