<Sentence id="1">
1	((	NP	<fs af='saMsWAna,n,m,pl,3,o,0_meM,0' head="saMsWAnoM" vpos="vib3_4" name="NP" drel="k7p:VGF">
1.1	nijI	JJ	<fs af='nijI,n,f,sg,3,d,0,0' poslcat="NM" name=nijI>
1.2	SikRaNa	XC	<fs af='SikRaNa,n,m,sg,3,d,0,0' poslcat="NM" name=SikRaNa>
1.3	saMsWAnoM	NN	<fs af='saMsWAna,n,m,pl,3,o,0,0' name=saMsWAnoM>
	))
2	((	NP	<fs af='ArakRaNa,n,m,sg,3,d,0,0' head="ArakRaNa" name="NP2" drel="k2:VGNN">
2.1	ArakRaNa	NN	<fs af='ArakRaNa,n,m,sg,3,d,0,0' name=ArakRaNa>
	))
3	((	JJP	<fs af='lAgU,n,m,sg,3,d,0,0' poslcat="NM" head="lAgU" name="JJP" drel="pof:VGNN">
3.1	lAgU	JJ	<fs af='lAgU,n,m,sg,3,d,0,0' poslcat="NM" name=lAgU>
	))
4	((	VGNN	<fs af='kara,v,m,pl,any,,nA_kA_le+yA,nA' head="karane" vpos="tam1_2_3" name="VGNN" drel="k7:VGF">
4.1	karane	VM	<fs af='kara,v,m,pl,any,,nA,nA' name=karane>
	))
5	((	VGF	<fs af='lA,v,any,sg,2,,eM_jA_raha+eM,eM' head="lAe" vpos="tam1_2_3" name="VGF" drel="nmod:NP3">
5.1	lAe	VM	<fs af='lA,v,any,sg,2,,eM,eM' name=lAe>
	))
6	((	NP	<fs af='viXeyaka,n,m,sg,3,d,0_ko,0' head="viXeyaka" vpos="vib1_2" name="NP3" drel="k2:VGNF">
6.1	viXeyaka	NN	<fs af='viXeyaka,n,m,sg,3,d,0,0' name=viXeyaka>
	))
7	((	VGNF	<fs af='le,v,any,any,any,,kara,kara' head="lekara" name="VGNF" drel="vmod:VGF2">
7.1	lekara	VM	<fs af='le,v,any,any,any,,kara,kara' name=lekara>
	))
8	((	NP	<fs af='rAjanIwi,n,f,sg,3,d,0,0' head="rAjanIwi" name="NP4" drel="k1:VGF2">
8.1	rAjanIwi	NN	<fs af='rAjanIwi,n,f,sg,3,d,0,0' name=rAjanIwi>
	))
9	((	VGF	<fs af='garamA,v,any,sg,2,,0_gaI_hE,0' head="garamA" vpos="tam1_2_3" name="VGF2">
9.1	garamA	VM	<fs af='garamA,v,any,any,any,,0,0' name=garamA>
9.2	.	SYM	<fs af='.,punc,,,,,,' name=.>
	))
</Sentence>

