<Sentence id="1">
1	((	NP	<fs af='pakRa,n,m,pl,3,o,0_kA,0' head=pakRoM posn=20 vpos="vib2_3" name="NP" drel="r6:NP2">
1.1	xonoM	QC	<fs af='xo,num,any,pl,,any,,' name=xonoM posn=10>
1.2	pakRoM	NN	<fs af='pakRa,n,m,pl,3,o,0,0' name=pakRoM posn=20>
	))
2	((	NP	<fs af='xalIla,n,f,sg,3,d,0,0' head=xalIla posn=40 name="NP2" drel="k2:VGNN">
2.1	xalIla	NN	<fs af='xalIla,n,f,sg,3,d,0,0' name=xalIla posn=40>
	))
3	((	VGNN	<fs af='suna,v,any,sg,3,o,nA_ke_bAxa,nA' head=sunane posn=50 vpos="tam1_2_3" name="VGNN" drel="k7t:VGF">
3.1	sunane	VM	<fs af='suna,v,any,any,any,o,nA,nA' name=sunane posn=50>
	))
4	((	NP	<fs af='hAIkorta,n,m,sg,3,o,0_kA,0' head=hAIkorta posn=80 vpos="vib1_2" name="NP3" drel="r6:NP4">
4.1	hAIkorta	NN	<fs af='hAIkorta,n,m,sg,3,o,0,0' name=hAIkorta posn=80>
	))
5	((	NP	<fs af='KaMdapITa,n,f,sg,3,o,0_ne,0' head=KaMdapITa posn=100 vpos="vib1_2" name="NP4" drel="k1:VGF">
5.1	KaMdapITa	NN	<fs af='KaMdapITa,n,f,sg,3,o,0,0' name=KaMdapITa posn=100>
	))
6	((	NP	<fs af='axAlawa,n,f,sg,3,o,0_kA,0' head=axAlawa posn=130 vpos="vib2_3" name="NP5" drel="r6:NP6">
6.1	nicalI	JJ	<fs af='nicalA,adj,f,sg,,o,,' name=nicalI posn=120>
6.2	axAlawa	NN	<fs af='axAlawa,n,f,sg,3,o,0,0' name=axAlawa posn=130>
	))
7	((	NP	<fs af='PEsalA,n,m,sg,3,o,0_ko,0' head=PEsale posn=150 vpos="vib1_2" name="NP6" drel="k2:VGNF">
7.1	PEsale	NN	<fs af='PEsalA,n,m,sg,3,o,0,0' name=PEsale posn=150>
	))
8	((	JJP	<fs af='sahI,adj,any,any,,,,' head=sahI posn=170 name="JJP" drel="pof:VGNF">
8.1	sahI	JJ	<fs af='sahI,adj,any,any,,,,' name=sahI posn=170>
	))
9	((	VGNF	<fs af='TaharA,v,m,sg,any,,wA_ho+yA,wA' head=TaharAwe posn=180 vpos="tam1_2" name="VGNF" drel="vmod:VGF">
9.1	TaharAwe	VM	<fs af='TaharA,v,m,sg,any,,wA,wA' name=TaharAwe posn=180>
	))
10	((	NP	<fs af='mOwa,n,f,sg,3,o,0_kA,0' head=mOwa posn=200 vpos="vib1_2" name="NP7" drel="r6:NP8">
10.1	mOwa	NN	<fs af='mOwa,n,f,sg,3,o,0,0' name=mOwa posn=200>
	))
11	((	NP	<fs af='sajA,n,f,sg,3,d,0,0' head=sajA posn=220 name="NP8" drel="k2:VGNN2">
11.1	sajA	NN	<fs af='sajA,n,f,sg,3,d,0,0' name=sajA posn=220>
	))
12	((	VGNN	<fs af='banA,v,any,sg,any,,yA_raKa+nA_kA,yA' head=banAe posn=230 vpos="tam1_2_3" name="VGNN2" drel="r6-k2:NP9">
12.1	banAe	VM	<fs af='banA,v,m,sg,any,,yA,yA' name=banAe posn=230>
	))
13	((	NP	<fs af='AxeSa,n,m,sg,3,d,0,0' head=AxeSa posn=260 name="NP9" drel="pof:VGF">
13.1	AxeSa	NN	<fs af='AxeSa,n,m,sg,3,d,0,0' name=AxeSa posn=260>
	))
14	((	VGF	<fs af='xe,v,m,sg,any,,yA,yA' head=xiyA stype=declarative posn=270 voicetype=active name="VGF">
14.1	xiyA	VM	<fs af='xe,v,m,sg,any,,yA,yA' name=xiyA posn=270>
	))
15	((	BLK	<fs af='.,punc,,,,,,' head=. posn=280 name="BLK" drel="rsym:VGF">
15.1	.	SYM	<fs af='.,punc,,,,,,' name=. posn=280>
	))
</Sentence>

